module bitbucket.org/ibolitpro/ws-proto

go 1.14

require (
	github.com/chuckpreslar/emission v0.0.0-20170206194824-a7ddd980baf9
	github.com/google/uuid v1.1.1
	github.com/gorilla/websocket v1.4.2
	github.com/konsorten/go-windows-terminal-sequences v1.0.2 // indirect
	github.com/sirupsen/logrus v1.5.0
	golang.org/x/sys v0.0.0-20200323222414-85ca7c5b95cd // indirect
)
